Letter          Percentage
e               12.59%
t                9.10%
a                8.08%
o                7.57%
n                7.26%
i                6.88%
s                6.64%
h                6.58%
r                5.78%
d                4.56%
l                3.77%
c                2.55%
u                2.54%
m                2.44%
f                2.35%
w                2.27%
g                1.85%
y                1.83%
p                1.81%
b                1.32%
v                1.06%
k                0.69%
x                0.18%
z                0.10%
j                0.10%
q                0.10%
Time: 0.00011900s
