Letter          Percentage
e               12.52%
t                9.06%
a                8.18%
o                7.61%
n                7.25%
h                6.72%
i                6.67%
s                6.37%
r                5.88%
d                4.76%
l                3.76%
u                2.54%
m                2.44%
c                2.42%
w                2.36%
f                2.19%
g                2.02%
y                1.81%
p                1.81%
b                1.37%
v                1.03%
k                0.80%
x                0.16%
z                0.10%
q                0.09%
j                0.09%
Time: 0.00012600s
