Letter          Percentage
e               12.83%
t                9.18%
o                7.83%
a                7.80%
n                7.49%
i                7.31%
s                6.87%
h                6.22%
r                5.51%
d                4.09%
l                3.84%
c                2.84%
u                2.50%
m                2.48%
f                2.45%
w                2.15%
y                1.81%
p                1.79%
g                1.55%
b                1.35%
v                1.08%
k                0.48%
x                0.26%
j                0.11%
q                0.11%
z                0.06%
Time: 0.00007000s
