Letter          Percentage
e               12.32%
t                8.82%
a                8.12%
o                7.70%
n                7.25%
i                6.93%
h                6.62%
s                6.53%
r                5.88%
d                4.77%
l                3.83%
u                2.60%
m                2.41%
w                2.39%
c                2.28%
f                2.13%
g                2.09%
y                1.80%
p                1.76%
b                1.37%
v                1.11%
k                0.84%
x                0.15%
j                0.10%
z                0.10%
q                0.09%
Time: 0.00015600s
