Letter          Percentage
e               12.49%
t                8.95%
a                8.24%
o                7.65%
n                7.31%
h                6.70%
i                6.67%
s                6.40%
r                5.87%
d                4.76%
l                3.79%
u                2.55%
m                2.45%
c                2.37%
w                2.36%
f                2.11%
g                2.04%
y                1.83%
p                1.77%
b                1.40%
v                1.03%
k                0.80%
x                0.16%
j                0.10%
q                0.09%
z                0.09%
Time: 0.00026500s
