Letter          Percentage
e               12.52%
t                9.06%
a                8.14%
o                7.60%
n                7.24%
h                6.72%
i                6.69%
s                6.40%
r                5.87%
d                4.76%
l                3.76%
u                2.56%
m                2.44%
c                2.44%
w                2.35%
f                2.21%
g                2.00%
p                1.82%
y                1.81%
b                1.38%
v                1.03%
k                0.78%
x                0.16%
z                0.10%
j                0.09%
q                0.09%
Time: 0.00013300s
