Letter          Percentage
e               12.57%
t                9.15%
a                8.04%
o                7.65%
n                7.26%
i                6.82%
h                6.63%
s                6.47%
r                5.78%
d                4.64%
l                3.76%
u                2.55%
c                2.51%
m                2.43%
w                2.32%
f                2.29%
g                1.93%
p                1.79%
y                1.79%
b                1.37%
v                1.02%
k                0.75%
x                0.17%
z                0.11%
j                0.10%
q                0.09%
Time: 0.00012200s
