Letter          Percentage
e               12.57%
t                9.11%
a                8.07%
o                7.56%
n                7.26%
i                6.89%
h                6.65%
s                6.56%
r                5.77%
d                4.59%
l                3.76%
c                2.56%
u                2.53%
m                2.44%
f                2.33%
w                2.29%
g                1.90%
p                1.81%
y                1.80%
b                1.33%
v                1.03%
k                0.71%
x                0.17%
z                0.10%
q                0.10%
j                0.09%
Time: 0.00010200s
