Letter          Percentage
e               12.46%
t                8.98%
a                8.24%
o                7.67%
n                7.30%
h                6.73%
i                6.65%
s                6.38%
r                5.85%
d                4.76%
l                3.80%
u                2.55%
m                2.43%
c                2.39%
w                2.37%
f                2.11%
g                2.06%
y                1.82%
p                1.77%
b                1.40%
v                1.01%
k                0.81%
x                0.16%
j                0.10%
q                0.09%
z                0.09%
Time: 0.00011400s
