Letter          Percentage
e               12.36%
t                8.75%
a                8.29%
o                7.64%
n                7.27%
i                6.90%
h                6.70%
s                6.58%
r                5.84%
d                4.77%
l                3.85%
u                2.56%
m                2.43%
w                2.40%
c                2.25%
g                2.08%
f                2.04%
y                1.86%
p                1.71%
b                1.36%
v                1.08%
k                0.84%
x                0.15%
j                0.10%
q                0.09%
z                0.08%
Time: 0.00010800s
