Letter          Percentage
e               12.57%
t                9.14%
a                8.00%
o                7.65%
n                7.26%
i                6.95%
s                6.68%
h                6.52%
r                5.74%
d                4.51%
l                3.79%
c                2.58%
u                2.52%
m                2.44%
f                2.39%
w                2.24%
g                1.84%
y                1.82%
p                1.81%
b                1.34%
v                1.05%
k                0.69%
x                0.19%
j                0.10%
z                0.10%
q                0.10%
Time: 0.00011400s
