Letter          Percentage
e               12.32%
t                8.82%
a                8.13%
o                7.70%
n                7.25%
i                6.92%
h                6.63%
s                6.54%
r                5.87%
d                4.76%
l                3.83%
u                2.60%
m                2.42%
w                2.40%
c                2.28%
f                2.13%
g                2.10%
y                1.80%
p                1.75%
b                1.37%
v                1.11%
k                0.83%
x                0.15%
j                0.10%
z                0.10%
q                0.09%
Time: 0.00028100s
