Letter          Percentage
e               12.56%
t                9.17%
a                8.03%
o                7.63%
n                7.27%
i                6.90%
s                6.67%
h                6.55%
r                5.73%
d                4.52%
l                3.78%
c                2.58%
u                2.53%
m                2.43%
f                2.37%
w                2.25%
g                1.84%
y                1.83%
p                1.81%
b                1.34%
v                1.05%
k                0.70%
x                0.19%
z                0.10%
j                0.10%
q                0.10%
Time: 0.00016400s
