Letter          Percentage
e               12.46%
t                8.84%
a                8.29%
o                7.57%
n                7.31%
i                6.83%
h                6.65%
s                6.49%
r                5.90%
d                4.71%
l                3.81%
u                2.55%
m                2.45%
w                2.37%
c                2.33%
f                2.10%
g                2.04%
y                1.84%
p                1.79%
b                1.38%
v                1.06%
k                0.79%
x                0.16%
j                0.10%
q                0.10%
z                0.07%
Time: 0.00018300s
