Letter          Percentage
e               12.38%
t                8.75%
a                8.25%
o                7.67%
n                7.28%
i                6.88%
h                6.72%
s                6.60%
r                5.83%
d                4.77%
l                3.84%
u                2.56%
m                2.42%
w                2.39%
c                2.26%
g                2.09%
f                2.07%
y                1.84%
p                1.71%
b                1.36%
v                1.09%
k                0.83%
x                0.15%
j                0.10%
q                0.09%
z                0.08%
Time: 0.00015200s
