Letter          Percentage
e               12.57%
t                9.14%
a                8.07%
o                7.61%
n                7.27%
i                6.82%
h                6.64%
s                6.51%
r                5.78%
d                4.63%
l                3.75%
u                2.55%
c                2.53%
m                2.45%
f                2.31%
w                2.31%
g                1.93%
y                1.80%
p                1.78%
b                1.36%
v                1.02%
k                0.73%
x                0.17%
z                0.10%
j                0.10%
q                0.09%
Time: 0.00015700s
