Letter          Percentage
e               12.49%
t                8.98%
a                8.25%
o                7.66%
n                7.30%
h                6.71%
i                6.65%
s                6.39%
r                5.86%
d                4.76%
l                3.79%
u                2.56%
m                2.45%
w                2.37%
c                2.36%
f                2.11%
g                2.06%
y                1.83%
p                1.77%
b                1.41%
v                1.02%
k                0.80%
x                0.16%
j                0.10%
z                0.09%
q                0.09%
Time: 0.00017000s
