Letter          Percentage
e               12.58%
t                9.13%
a                8.05%
o                7.65%
n                7.26%
i                6.78%
h                6.64%
s                6.46%
r                5.82%
d                4.66%
l                3.75%
u                2.54%
c                2.52%
m                2.43%
w                2.33%
f                2.27%
g                1.95%
p                1.81%
y                1.79%
b                1.37%
v                1.02%
k                0.75%
x                0.17%
z                0.10%
j                0.09%
q                0.09%
Time: 0.00023800s
