Letter          Percentage
e               12.92%
t                9.38%
o                8.00%
a                7.63%
n                7.61%
i                7.48%
s                6.77%
h                5.86%
r                5.48%
l                3.87%
d                3.83%
c                3.00%
f                2.51%
u                2.46%
m                2.43%
w                2.12%
p                1.82%
y                1.80%
g                1.47%
b                1.35%
v                1.14%
k                0.46%
x                0.29%
j                0.13%
q                0.12%
z                0.06%
Time: 0.00012000s
