Letter          Percentage
e               12.36%
t                8.78%
a                8.03%
o                7.73%
n                7.24%
i                6.92%
h                6.66%
s                6.45%
r                5.88%
d                4.74%
l                3.93%
u                2.63%
m                2.45%
w                2.38%
c                2.24%
f                2.14%
g                2.08%
y                1.84%
p                1.73%
b                1.40%
v                1.13%
k                0.86%
x                0.14%
z                0.10%
j                0.09%
q                0.08%
Time: 0.00010700s
