Letter          Percentage
e               12.57%
t                9.12%
a                8.05%
o                7.64%
n                7.27%
i                6.76%
h                6.64%
s                6.45%
r                5.83%
d                4.66%
l                3.76%
u                2.54%
c                2.51%
m                2.44%
w                2.33%
f                2.27%
g                1.95%
p                1.82%
y                1.80%
b                1.37%
v                1.03%
k                0.74%
x                0.17%
z                0.10%
j                0.09%
q                0.09%
Time: 0.00011300s
