Letter          Percentage
e               12.58%
t                9.16%
a                8.03%
o                7.64%
n                7.27%
i                6.82%
h                6.63%
s                6.47%
r                5.78%
d                4.64%
l                3.76%
u                2.54%
c                2.52%
m                2.43%
w                2.32%
f                2.31%
g                1.93%
p                1.79%
y                1.79%
b                1.37%
v                1.01%
k                0.74%
x                0.17%
z                0.10%
j                0.09%
q                0.09%
Time: 0.00014400s
