Letter          Percentage
e               11.96%
t                8.54%
a                8.29%
o                7.61%
n                7.41%
i                7.27%
s                6.56%
h                6.44%
r                5.72%
d                4.58%
l                4.07%
u                2.84%
m                2.50%
w                2.38%
c                2.33%
g                2.22%
y                2.07%
f                1.81%
p                1.65%
b                1.29%
v                1.13%
k                0.90%
x                0.17%
j                0.10%
q                0.09%
z                0.06%
Time: 0.00011200s
