Letter          Percentage
e               12.57%
t                9.13%
a                8.05%
o                7.65%
n                7.26%
i                6.76%
h                6.66%
s                6.46%
r                5.83%
d                4.66%
l                3.75%
u                2.54%
c                2.50%
m                2.43%
w                2.33%
f                2.27%
g                1.95%
p                1.81%
y                1.80%
b                1.37%
v                1.03%
k                0.75%
x                0.17%
z                0.10%
j                0.09%
q                0.09%
Time: 0.00012800s
