Letter          Percentage
e               12.47%
t                8.83%
a                8.30%
o                7.56%
n                7.32%
i                6.77%
h                6.68%
s                6.49%
r                5.93%
d                4.74%
l                3.80%
u                2.54%
m                2.44%
w                2.36%
c                2.35%
f                2.09%
g                2.04%
y                1.83%
p                1.81%
b                1.37%
v                1.06%
k                0.78%
x                0.16%
j                0.10%
q                0.09%
z                0.07%
Time: 0.00016500s
