Letter          Percentage
e               12.84%
t                9.10%
a                7.88%
o                7.67%
n                7.29%
i                7.14%
s                6.77%
h                6.40%
r                5.63%
d                4.31%
l                3.85%
c                2.66%
u                2.49%
m                2.47%
f                2.43%
w                2.24%
p                1.85%
y                1.82%
g                1.67%
b                1.35%
v                1.04%
k                0.56%
x                0.23%
j                0.11%
q                0.10%
z                0.09%
Time: 0.00008000s
