Letter          Percentage
e               13.13%
t                9.58%
o                8.53%
i                8.06%
n                7.97%
a                7.09%
s                6.74%
r                5.08%
h                5.06%
c                3.73%
l                3.58%
d                3.19%
f                3.10%
m                2.87%
u                2.19%
w                2.04%
y                1.66%
p                1.61%
b                1.33%
v                1.24%
g                1.22%
k                0.34%
x                0.33%
j                0.16%
q                0.11%
z                0.07%
Time: 0.00006100s
