Letter          Percentage
e               12.32%
t                8.81%
a                8.05%
o                7.48%
n                7.37%
i                6.99%
h                6.54%
s                6.14%
r                5.90%
d                4.75%
l                3.80%
u                2.73%
c                2.48%
m                2.39%
w                2.33%
f                2.28%
g                2.23%
y                1.78%
p                1.66%
b                1.40%
v                1.05%
k                1.01%
x                0.15%
z                0.13%
j                0.12%
q                0.10%
Time: 0.00010700s
