Letter          Percentage
e               13.00%
t                9.58%
o                8.30%
n                7.73%
i                7.71%
a                7.41%
s                6.83%
h                5.54%
r                5.42%
l                3.84%
d                3.47%
c                3.25%
f                2.71%
m                2.51%
u                2.35%
w                2.01%
p                1.85%
y                1.71%
b                1.29%
g                1.29%
v                1.19%
k                0.39%
x                0.31%
q                0.13%
j                0.13%
z                0.06%
Time: 0.00006700s
