Letter          Percentage
e               12.41%
t                8.76%
a                8.32%
o                7.58%
n                7.32%
i                6.91%
h                6.65%
s                6.54%
r                5.85%
d                4.74%
l                3.84%
u                2.56%
m                2.46%
w                2.39%
c                2.30%
f                2.07%
g                2.03%
y                1.84%
p                1.76%
b                1.37%
v                1.08%
k                0.80%
x                0.16%
j                0.10%
q                0.09%
z                0.08%
Time: 0.00015400s
