Letter          Percentage
e               12.58%
t                9.10%
a                8.06%
o                7.55%
n                7.27%
i                6.91%
h                6.65%
s                6.58%
r                5.78%
d                4.59%
l                3.77%
c                2.57%
u                2.53%
m                2.44%
f                2.34%
w                2.28%
g                1.88%
p                1.81%
y                1.80%
b                1.32%
v                1.04%
k                0.70%
x                0.18%
z                0.10%
q                0.10%
j                0.09%
Time: 0.00015000s
