Letter          Percentage
e               12.58%
t                9.12%
a                8.05%
o                7.59%
n                7.26%
i                6.88%
s                6.65%
h                6.60%
r                5.76%
d                4.56%
l                3.78%
c                2.55%
u                2.53%
m                2.43%
f                2.36%
w                2.28%
g                1.84%
y                1.83%
p                1.81%
b                1.33%
v                1.05%
k                0.70%
x                0.18%
j                0.10%
z                0.10%
q                0.10%
Time: 0.00021000s
