Letter          Percentage
e               12.85%
t                9.10%
a                7.87%
o                7.68%
n                7.35%
i                7.23%
s                6.83%
h                6.36%
r                5.60%
d                4.25%
l                3.82%
c                2.70%
m                2.49%
u                2.48%
f                2.42%
w                2.20%
p                1.87%
y                1.82%
g                1.62%
b                1.35%
v                1.05%
k                0.54%
x                0.24%
j                0.11%
q                0.10%
z                0.08%
Time: 0.00013400s
