Letter          Percentage
e               12.67%
t                9.06%
a                8.00%
o                7.62%
n                7.27%
i                6.99%
s                6.70%
h                6.55%
r                5.66%
d                4.50%
l                3.81%
c                2.57%
u                2.50%
m                2.45%
f                2.38%
w                2.26%
y                1.85%
p                1.82%
g                1.81%
b                1.34%
v                1.05%
k                0.66%
x                0.20%
j                0.11%
q                0.09%
z                0.09%
Time: 0.00009800s
