Letter          Percentage
e               12.79%
t                9.19%
o                7.84%
a                7.83%
n                7.46%
i                7.31%
s                6.88%
h                6.22%
r                5.51%
d                4.09%
l                3.83%
c                2.84%
u                2.50%
m                2.48%
f                2.45%
w                2.15%
y                1.81%
p                1.80%
g                1.56%
b                1.35%
v                1.08%
k                0.48%
x                0.26%
j                0.11%
q                0.11%
z                0.06%
Time: 0.00027300s
