Letter          Percentage
e               12.78%
t                9.11%
a                7.93%
o                7.62%
n                7.32%
i                7.07%
s                6.77%
h                6.43%
r                5.71%
d                4.35%
l                3.81%
c                2.63%
u                2.51%
m                2.47%
f                2.44%
w                2.22%
y                1.84%
p                1.82%
g                1.71%
b                1.35%
v                1.04%
k                0.57%
x                0.22%
j                0.11%
q                0.10%
z                0.10%
Time: 0.00010900s
